epoch,loss,val_loss
0,99.0131523576363,98.99309086901076
1,99.01185653525054,98.99309086901076
2,99.01185531616211,98.99309086901076
3,99.01185519909733,98.99309086901076
4,99.01185512643643,98.99309086901076
5,99.01185506588567,98.99309086901076
6,99.01185503762866,98.99309086901076
7,99.0118549972615,98.99309086901076
8,99.0118550012982,98.99309086901076
9,99.01185498918805,98.99309086901076
10,99.01185505377552,98.99309086901076
11,99.01185498515134,98.99309086901076
12,99.01185498515134,98.99309086901076
13,99.01185498515134,98.99309086901076
14,99.01185498515134,98.99309086901076
15,99.01185498918805,98.99309086901076
16,99.01185498515134,98.99309086901076
17,99.01185498918805,98.99309086901076
18,99.01185498515134,98.99309086901076
19,99.01185498515134,98.99309086901076
20,99.01185498515134,98.99309086901076
21,99.01185498515134,98.99309086901076
22,99.01185498515134,98.99309086901076
23,99.01185498515134,98.99309086901076
24,99.01185498515134,98.99309086901076
25,99.01185498515134,98.99309086901076
26,99.01185498515134,98.99309086901076
27,99.01185498515134,98.99309086901076
28,99.01185498515134,98.99309086901076
29,99.01185498515134,98.99309086901076
30,99.01185498515134,98.99309086901076
31,99.01185498515134,98.99309086901076
32,99.01185498515134,98.99309086901076
33,99.01185498515134,98.99309086901076
34,99.01185498515134,98.99309086901076
35,99.01185498515134,98.99309086901076
36,99.01185498515134,98.99309086901076
37,99.01185498515134,98.99309086901076
