epoch,loss,val_loss
0,99.02707881624737,98.99309086901076
1,99.01253409007239,98.99309086901076
2,99.01218047369095,98.99309086901076
3,99.01201054810217,98.99309086901076
4,99.0119569162843,98.99309086901076
5,99.01191218542674,98.99309086901076
